uuidProsthesis1,prosthesis1TypeCode,prosthesis1TypeDisplay,prosthesis1Extr,Random
4cf2865f-794e-41ea-aa59-d2aedea083aa,int-prosthesis,Internal Prosthesis,,"0,0196036645054128"
7453d654-beed-4db1-bfef-4fbddf9cd1a8,Int-prosthesis,Protesis Interna,,"0,124503433955952"
5727e92b-a7fe-43c2-b045-64c587ec5dc3,unknown,Unknown,,"0,405350506189851"
9d00a78c-ca26-40ce-b1ea-61c249fe82c5,ext-prosthesis,External Prosthesis,Protesis en la pierna derecha,"0,47264536935977"
18941532-1544-47ef-872d-54f02f25c2d7,unknown,Unknown,,"0,806811890664771"
2368ee33-5663-40fe-8a60-729243d42fbe,Int-prosthesis,Protesis Interna,,"0,236133646895292"
fc2f0e55-b8b9-4e2e-afcd-5438f8889d1a,ext-prosthesis,External Prosthesis,Mano protésica,"0,939945409816225"
2915588c-df8a-4d37-99a2-12de61d112d0,unknown,Unknown,,"0,217063279035829"
930189f7-afd8-4486-b29b-adf026be3525,ext-prosthesis,External Prosthesis,Protesis en la pierna derecha,"0,578196382547791"
ead00b07-66ba-4a80-90a5-72f13b47864a,Int-prosthesis,Protesis Interna,,"0,700522674989373"
b9b410b4-d273-49ba-aa5f-d4b06d155f03,Int-prosthesis,Protesis Interna,,"0,726899950373362"
316a2775-13e7-4f4f-8073-c635100efa2e,ext-prosthesis,External Prosthesis,,"0,963662799040253"
85fea0c5-fbd7-4d51-815d-4b415c5f9c41,int-prosthesis,Internal Prosthesis,Prótesis buco-maxilo-facial,"0,647705821861779"
89c70642-97ec-4d74-bfa8-18a361076f8f,Int-prosthesis,Protesis Interna,,"0,00442369974845531"
80d3da83-5eaf-4ede-9cbe-5ab9a82bdb80,unknown,Unknown,,"0,05212565390371"
0b33f929-6ef0-4879-aa68-6dc2719c8300,int-prosthesis,Internal Prosthesis,,"0,866217926123487"
a4507c59-a9cd-4c9f-9f29-abf3dfd34ccd,Int-prosthesis,Protesis Interna,,"0,945852159745433"
e2edba2c-2047-498b-8b23-ae39ae66e1e1,ext-prosthesis,External Prosthesis,,"0,0564693113026841"
b74e95d1-47e8-4285-93e3-a343d31aec5c,int-prosthesis,Internal Prosthesis,,"0,469013164335832"
adde31ce-f555-4dd0-bbb2-82307732cfc1,int-prosthesis,Internal Prosthesis,,"0,154400897525923"
854592f9-8b8a-44b8-9b3b-0f1a3790ea2b,ext-prosthesis,External Prosthesis,Protesis en la pierna derecha,"0,232776926209249"
edb1b2a3-df7e-47d4-98be-562ff5a632fb,unknown,Unknown,,"0,0792702076454599"
2d99e805-addb-4f90-9e5b-faee322f727f,int-prosthesis,Internal Prosthesis,,"0,223366933721814"
dbb9c7ab-8e6a-48a9-be9b-84cdd9c88438,int-prosthesis,Internal Prosthesis,,"0,854306238440519"
17c45588-b685-4995-862e-e169c05c4d11,Int-prosthesis,Protesis Interna,,"0,864489252851739"
ba0a717d-3627-446b-8abd-32c2a16a6e3f,unknown,Unknown,,"0,452152280529778"
5a963aa3-d16f-4276-aa6b-83da113c5467,ext-prosthesis,External Prosthesis,Protesis en la pierna izquierda,"0,98742185895128"
ccd3cee5-acbd-4ed9-9bd5-30c95cbb720c,int-prosthesis,Internal Prosthesis,Implante coclear,"0,292926229692894"
69eb4f8e-ed07-44a9-88fc-458de1eaf27b,int-prosthesis,Internal Prosthesis,,"0,507858489400782"
a54bfbc8-72b3-43c9-b98f-2d49e231fe7e,Int-prosthesis,Protesis Interna,,"0,7067943341126"
3201d1da-0521-4ae8-9b56-c393801b98a7,Int-prosthesis,Protesis Interna,,"0,539199722451412"
d9aadaca-f841-498a-af16-a75a1124d5b7,unknown,Unknown,,"0,61350148127885"
7f802141-6abb-48ab-a598-5b9548e85b46,unknown,Unknown,,"0,972142075109029"
c725729a-9133-4f2d-acfd-a7b846fc1abf,ext-prosthesis,External Prosthesis,,"0,571086193081543"
12b88460-1993-4dae-89eb-fa012b0ad488,int-prosthesis,Internal Prosthesis,,"0,401402848934277"
20d6ef17-971d-4760-9f22-a6e079a70760,ext-prosthesis,External Prosthesis,Mano protésica,"0,549615800824348"
27dfeab2-2d5a-47fc-936c-839227df4aef,ext-prosthesis,External Prosthesis,,"0,615487845478276"
2875be02-a6a1-43ee-b422-cbf658aeb3b7,unknown,Unknown,,"0,889591258404416"
dbc8b4a0-f87d-47fd-95f2-0f0755ae8650,unknown,Unknown,,"0,221752996235326"
38562724-3797-4fa2-833f-232099b83848,int-prosthesis,Internal Prosthesis,,"0,656397501101342"
68eb4ecb-1c5a-4a0a-8f3e-3a94d22fd931,unknown,Unknown,,"0,754462846373882"
0532d0a4-56be-4150-bc4c-25605b952d4f,unknown,Unknown,,"0,0459637701690926"
8b9eb2ac-d3fe-45a2-8f30-5de65b96f4e1,Int-prosthesis,Protesis Interna,,"0,277875794914742"
dff89b4b-02d4-421b-9de3-d81cb33cda51,Int-prosthesis,Protesis Interna,,"0,900421533148221"
487cd0f9-abca-4319-817c-ccde1f5dbe77,ext-prosthesis,External Prosthesis,Protesis en la pierna izquierda,"0,300346546835253"
6209146c-f453-45c5-b579-14285b97be9f,unknown,Unknown,,"0,960479603786752"
3bb83306-1e50-4c8f-b3b0-5e2c6f0e34ba,ext-prosthesis,External Prosthesis,,"0,720554485312545"
b61d5c85-ef8d-400e-bd43-31dd39ab1985,int-prosthesis,Internal Prosthesis,,"0,324113780284253"
719a8b4e-e616-4885-ab4a-5ed0002d17c2,Int-prosthesis,Protesis Interna,,"0,301863474746922"
