[
 

{
"resource": {
      "resourceType": "MedicationStatement",
      "meta": {
        "profile": [ "http://hl7.eu/fhir/ig/pcsp/StructureDefinition/MedicationStatement-eu-pcsp" ],
        "security": [
            {
              "system": "http://hl7.org/fhir/ValueSet/security-labels",
              "code": "SYSDEV"
            }
          ]

      },
      "language": "ES",
      "medicationCodeableConcept": {
        "coding": [
         ]
      }
      ,
      "subject": {
        "reference": "Patient/urn:uuid:1b4a7d12-5cac-4534-9915-25a17e387f44",
        "type": "Patient"
      }
      ,
      "reasonReference": [ {
        "reference": "Condition/urn:uuid:3db8b84e-bbd4-4fd8-a9b3-b30689c5ffa4",
        "type": "Condition"
      } ]
  
    }
}
, 
{
  "resource": {
        "resourceType": "MedicationStatement",
        "meta": {
        "profile": [ "http://hl7.eu/fhir/ig/pcsp/StructureDefinition/MedicationStatement-eu-pcsp" ],
        "security": [
            {
              "system": "http://hl7.org/fhir/ValueSet/security-labels",
              "code": "SYSDEV"
            }
          ]

        },
        "language": "ES",
        "medicationCodeableConcept": {
          "coding": [
            {
              "system": "http://www.whocc.no/atc",
              "code": "H02",
              "display": "CORTICOSTEROIDES PARA USO SISTÉMICO"
            }
          ]
        }
      ,
      "subject": {
        "reference": "Patient/urn:uuid:1b4a7d12-5cac-4534-9915-25a17e387f44",
        "type": "Patient"
      }
      ,
      "reasonReference": [ {
        "reference": "Condition/urn:uuid:3db8b84e-bbd4-4fd8-a9b3-b30689c5ffa4",
        "type": "Condition"
      } ]
      ,
      "dosage": [
          {
            "timing": {
              "repeat": {
                "boundsDuration": {
                  "value": 4,
                  "comparator": ">",
                  "unit": "w",
                  "code": "w"
                }
              }
            }
          }
        ]
      }
    }

 ,

{
"resource": {
      "resourceType": "MedicationStatement",
      "meta": {
        "profile": [ "http://hl7.eu/fhir/ig/pcsp/StructureDefinition/MedicationStatement-eu-pcsp" ],
        "security": [
            {
              "system": "http://hl7.org/fhir/ValueSet/security-labels",
              "code": "SYSDEV"
            }
          ]

      },
      "language": "ES",
      "medicationCodeableConcept": {
        "coding": [
         ]
      }
      ,
      "subject": {
        "reference": "Patient/urn:uuid:7199416b-6f38-4217-b1c0-0983bac1f8b8",
        "type": "Patient"
      }
      ,
      "reasonReference": [ {
        "reference": "Condition/urn:uuid:6b2fa128-2e31-4fc6-88bc-3616c4f9859c",
        "type": "Condition"
      } ]
  
    }
}
, 
{
  "resource": {
        "resourceType": "MedicationStatement",
        "meta": {
        "profile": [ "http://hl7.eu/fhir/ig/pcsp/StructureDefinition/MedicationStatement-eu-pcsp" ],
        "security": [
            {
              "system": "http://hl7.org/fhir/ValueSet/security-labels",
              "code": "SYSDEV"
            }
          ]

        },
        "language": "ES",
        "medicationCodeableConcept": {
          "coding": [
            {
              "system": "http://www.whocc.no/atc",
              "code": "H02",
              "display": "CORTICOSTEROIDES PARA USO SISTÉMICO"
            }
          ]
        }
      ,
      "subject": {
        "reference": "Patient/urn:uuid:7199416b-6f38-4217-b1c0-0983bac1f8b8",
        "type": "Patient"
      }
      ,
      "reasonReference": [ {
        "reference": "Condition/urn:uuid:6b2fa128-2e31-4fc6-88bc-3616c4f9859c",
        "type": "Condition"
      } ]
      ,
      "dosage": [
          {
            "timing": {
              "repeat": {
                "boundsDuration": {
                  "value": 4,
                  "comparator": ">",
                  "unit": "w",
                  "code": "w"
                }
              }
            }
          }
        ]
      }
    }

 ,

{
"resource": {
      "resourceType": "MedicationStatement",
      "meta": {
        "profile": [ "http://hl7.eu/fhir/ig/pcsp/StructureDefinition/MedicationStatement-eu-pcsp" ],
        "security": [
            {
              "system": "http://hl7.org/fhir/ValueSet/security-labels",
              "code": "SYSDEV"
            }
          ]

      },
      "language": "ES",
      "medicationCodeableConcept": {
        "coding": [
         ]
      }
      ,
      "subject": {
        "reference": "Patient/urn:uuid:150f6b4d-f927-4732-824e-78102beeb613",
        "type": "Patient"
      }
      ,
      "reasonReference": [ {
        "reference": "Condition/urn:uuid:af97bfde-7236-4c03-8021-2e9fabbca9af",
        "type": "Condition"
      } ]
  
    }
}
, 
{
  "resource": {
        "resourceType": "MedicationStatement",
        "meta": {
        "profile": [ "http://hl7.eu/fhir/ig/pcsp/StructureDefinition/MedicationStatement-eu-pcsp" ],
        "security": [
            {
              "system": "http://hl7.org/fhir/ValueSet/security-labels",
              "code": "SYSDEV"
            }
          ]

        },
        "language": "ES",
        "medicationCodeableConcept": {
          "coding": [
            {
              "system": "http://www.whocc.no/atc",
              "code": "H02",
              "display": "CORTICOSTEROIDES PARA USO SISTÉMICO"
            }
          ]
        }
      ,
      "subject": {
        "reference": "Patient/urn:uuid:150f6b4d-f927-4732-824e-78102beeb613",
        "type": "Patient"
      }
      ,
      "reasonReference": [ {
        "reference": "Condition/urn:uuid:af97bfde-7236-4c03-8021-2e9fabbca9af",
        "type": "Condition"
      } ]
      ,
      "dosage": [
          {
            "timing": {
              "repeat": {
                "boundsDuration": {
                  "value": 4,
                  "comparator": ">",
                  "unit": "w",
                  "code": "w"
                }
              }
            }
          }
        ]
      }
    }

 ,

{
"resource": {
      "resourceType": "MedicationStatement",
      "meta": {
        "profile": [ "http://hl7.eu/fhir/ig/pcsp/StructureDefinition/MedicationStatement-eu-pcsp" ],
        "security": [
            {
              "system": "http://hl7.org/fhir/ValueSet/security-labels",
              "code": "SYSDEV"
            }
          ]

      },
      "language": "ES",
      "medicationCodeableConcept": {
        "coding": [
         ]
      }
      ,
      "subject": {
        "reference": "Patient/urn:uuid:190c08f8-4729-4281-aa64-d1ae95a4cde2",
        "type": "Patient"
      }
      ,
      "reasonReference": [ {
        "reference": "Condition/urn:uuid:d4083f89-2c6b-4eef-bffa-32d983fca393",
        "type": "Condition"
      } ]
  
    }
}
, 
{
  "resource": {
        "resourceType": "MedicationStatement",
        "meta": {
        "profile": [ "http://hl7.eu/fhir/ig/pcsp/StructureDefinition/MedicationStatement-eu-pcsp" ],
        "security": [
            {
              "system": "http://hl7.org/fhir/ValueSet/security-labels",
              "code": "SYSDEV"
            }
          ]

        },
        "language": "ES",
        "medicationCodeableConcept": {
          "coding": [
            {
              "system": "http://www.whocc.no/atc",
              "code": "H02",
              "display": "CORTICOSTEROIDES PARA USO SISTÉMICO"
            }
          ]
        }
      ,
      "subject": {
        "reference": "Patient/urn:uuid:190c08f8-4729-4281-aa64-d1ae95a4cde2",
        "type": "Patient"
      }
      ,
      "reasonReference": [ {
        "reference": "Condition/urn:uuid:d4083f89-2c6b-4eef-bffa-32d983fca393",
        "type": "Condition"
      } ]
      ,
      "dosage": [
          {
            "timing": {
              "repeat": {
                "boundsDuration": {
                  "value": 4,
                  "comparator": ">",
                  "unit": "w",
                  "code": "w"
                }
              }
            }
          }
        ]
      }
    }

 ,

{
"resource": {
      "resourceType": "MedicationStatement",
      "meta": {
        "profile": [ "http://hl7.eu/fhir/ig/pcsp/StructureDefinition/MedicationStatement-eu-pcsp" ],
        "security": [
            {
              "system": "http://hl7.org/fhir/ValueSet/security-labels",
              "code": "SYSDEV"
            }
          ]

      },
      "language": "ES",
      "medicationCodeableConcept": {
        "coding": [
         ]
      }
      ,
      "subject": {
        "reference": "Patient/urn:uuid:6a9b8c92-98f6-4e27-9781-efca108ad775",
        "type": "Patient"
      }
      ,
      "reasonReference": [ {
        "reference": "Condition/urn:uuid:4ab23459-3485-4243-b4e2-f5d754d41923",
        "type": "Condition"
      } ]
  
    }
}
, 
{
  "resource": {
        "resourceType": "MedicationStatement",
        "meta": {
        "profile": [ "http://hl7.eu/fhir/ig/pcsp/StructureDefinition/MedicationStatement-eu-pcsp" ],
        "security": [
            {
              "system": "http://hl7.org/fhir/ValueSet/security-labels",
              "code": "SYSDEV"
            }
          ]

        },
        "language": "ES",
        "medicationCodeableConcept": {
          "coding": [
            {
              "system": "http://www.whocc.no/atc",
              "code": "H02",
              "display": "CORTICOSTEROIDES PARA USO SISTÉMICO"
            }
          ]
        }
      ,
      "subject": {
        "reference": "Patient/urn:uuid:6a9b8c92-98f6-4e27-9781-efca108ad775",
        "type": "Patient"
      }
      ,
      "reasonReference": [ {
        "reference": "Condition/urn:uuid:4ab23459-3485-4243-b4e2-f5d754d41923",
        "type": "Condition"
      } ]
      ,
      "dosage": [
          {
            "timing": {
              "repeat": {
                "boundsDuration": {
                  "value": 4,
                  "comparator": ">",
                  "unit": "w",
                  "code": "w"
                }
              }
            }
          }
        ]
      }
    }

]