[
 
{
"resource": {
  "resourceType" : "Encounter",
  "language": "ES",
  "status" : "finished",
  "class" : {
    "system" : "http://terminology.hl7.org/CodeSystem/v3-ActCode",
    "code" : "AMB",
    "display" : "ambulatory"
  }
 }
}
 ,
{
"resource": {
  "resourceType" : "Encounter",
  "language": "ES",
  "status" : "finished",
  "class" : {
    "system" : "http://terminology.hl7.org/CodeSystem/v3-ActCode",
    "code" : "AMB",
    "display" : "ambulatory"
  }
  ,
  "period" : {
    "start" : "2017-06-23"
  }
 }
}
 ,
{
"resource": {
  "resourceType" : "Encounter",
  "language": "ES",
  "status" : "finished",
  "class" : {
    "system" : "http://terminology.hl7.org/CodeSystem/v3-ActCode",
    "code" : "AMB",
    "display" : "ambulatory"
  }
 }
}
 ,
{
"resource": {
  "resourceType" : "Encounter",
  "language": "ES",
  "status" : "finished",
  "class" : {
    "system" : "http://terminology.hl7.org/CodeSystem/v3-ActCode",
    "code" : "AMB",
    "display" : "ambulatory"
  }
  ,
  "period" : {
    "start" : "2015-04-30"
  }
 }
}
 ,
{
"resource": {
  "resourceType" : "Encounter",
  "language": "ES",
  "status" : "finished",
  "class" : {
    "system" : "http://terminology.hl7.org/CodeSystem/v3-ActCode",
    "code" : "AMB",
    "display" : "ambulatory"
  }
  ,
  "period" : {
    "start" : "2013-04-12"
  }
 }
}
 ,
{
"resource": {
  "resourceType" : "Encounter",
  "language": "ES",
  "status" : "finished",
  "class" : {
    "system" : "http://terminology.hl7.org/CodeSystem/v3-ActCode",
    "code" : "AMB",
    "display" : "ambulatory"
  }
  ,
  "period" : {
    "start" : "2015-05-27"
  }
 }
}
 ,
{
"resource": {
  "resourceType" : "Encounter",
  "language": "ES",
  "status" : "finished",
  "class" : {
    "system" : "http://terminology.hl7.org/CodeSystem/v3-ActCode",
    "code" : "AMB",
    "display" : "ambulatory"
  }
 }
}
 ,
{
"resource": {
  "resourceType" : "Encounter",
  "language": "ES",
  "status" : "finished",
  "class" : {
    "system" : "http://terminology.hl7.org/CodeSystem/v3-ActCode",
    "code" : "AMB",
    "display" : "ambulatory"
  }
  ,
  "period" : {
    "start" : "2013-03-08"
  }
 }
}
 ,
{
"resource": {
  "resourceType" : "Encounter",
  "language": "ES",
  "status" : "finished",
  "class" : {
    "system" : "http://terminology.hl7.org/CodeSystem/v3-ActCode",
    "code" : "AMB",
    "display" : "ambulatory"
  }
 }
}
 ,
{
"resource": {
  "resourceType" : "Encounter",
  "language": "ES",
  "status" : "finished",
  "class" : {
    "system" : "http://terminology.hl7.org/CodeSystem/v3-ActCode",
    "code" : "AMB",
    "display" : "ambulatory"
  }
  ,
  "period" : {
    "start" : "2014-04-30"
  }
 }
}
 ,
{
"resource": {
  "resourceType" : "Encounter",
  "language": "ES",
  "status" : "finished",
  "class" : {
    "system" : "http://terminology.hl7.org/CodeSystem/v3-ActCode",
    "code" : "AMB",
    "display" : "ambulatory"
  }
  ,
  "period" : {
    "start" : "2016-09-07"
  }
 }
}
 ,
{
"resource": {
  "resourceType" : "Encounter",
  "language": "ES",
  "status" : "finished",
  "class" : {
    "system" : "http://terminology.hl7.org/CodeSystem/v3-ActCode",
    "code" : "AMB",
    "display" : "ambulatory"
  }
 }
}
 ,
{
"resource": {
  "resourceType" : "Encounter",
  "language": "ES",
  "status" : "finished",
  "class" : {
    "system" : "http://terminology.hl7.org/CodeSystem/v3-ActCode",
    "code" : "AMB",
    "display" : "ambulatory"
  }
  ,
  "period" : {
    "start" : "2015-10-09"
  }
 }
}
 ,
{
"resource": {
  "resourceType" : "Encounter",
  "language": "ES",
  "status" : "finished",
  "class" : {
    "system" : "http://terminology.hl7.org/CodeSystem/v3-ActCode",
    "code" : "AMB",
    "display" : "ambulatory"
  }
  ,
  "period" : {
    "start" : "2017-07-12"
  }
 }
}
 ,
{
"resource": {
  "resourceType" : "Encounter",
  "language": "ES",
  "status" : "finished",
  "class" : {
    "system" : "http://terminology.hl7.org/CodeSystem/v3-ActCode",
    "code" : "AMB",
    "display" : "ambulatory"
  }
  ,
  "period" : {
    "start" : "2015-01-21"
  }
 }
}
 ,
{
"resource": {
  "resourceType" : "Encounter",
  "language": "ES",
  "status" : "finished",
  "class" : {
    "system" : "http://terminology.hl7.org/CodeSystem/v3-ActCode",
    "code" : "AMB",
    "display" : "ambulatory"
  }
  ,
  "period" : {
    "start" : "2015-03-12"
  }
 }
}
 ,
{
"resource": {
  "resourceType" : "Encounter",
  "language": "ES",
  "status" : "finished",
  "class" : {
    "system" : "http://terminology.hl7.org/CodeSystem/v3-ActCode",
    "code" : "AMB",
    "display" : "ambulatory"
  }
 }
}
 ,
{
"resource": {
  "resourceType" : "Encounter",
  "language": "ES",
  "status" : "finished",
  "class" : {
    "system" : "http://terminology.hl7.org/CodeSystem/v3-ActCode",
    "code" : "AMB",
    "display" : "ambulatory"
  }
  ,
  "period" : {
    "start" : "2013-02-22"
  }
 }
}
 ,
{
"resource": {
  "resourceType" : "Encounter",
  "language": "ES",
  "status" : "finished",
  "class" : {
    "system" : "http://terminology.hl7.org/CodeSystem/v3-ActCode",
    "code" : "AMB",
    "display" : "ambulatory"
  }
 }
}
 ,
{
"resource": {
  "resourceType" : "Encounter",
  "language": "ES",
  "status" : "finished",
  "class" : {
    "system" : "http://terminology.hl7.org/CodeSystem/v3-ActCode",
    "code" : "AMB",
    "display" : "ambulatory"
  }
  ,
  "period" : {
    "start" : "2013-11-08"
  }
 }
}
 ,
{
"resource": {
  "resourceType" : "Encounter",
  "language": "ES",
  "status" : "finished",
  "class" : {
    "system" : "http://terminology.hl7.org/CodeSystem/v3-ActCode",
    "code" : "AMB",
    "display" : "ambulatory"
  }
 }
}
 ,
{
"resource": {
  "resourceType" : "Encounter",
  "language": "ES",
  "status" : "finished",
  "class" : {
    "system" : "http://terminology.hl7.org/CodeSystem/v3-ActCode",
    "code" : "AMB",
    "display" : "ambulatory"
  }
  ,
  "period" : {
    "start" : "2013-11-07"
  }
 }
}
 ,
{
"resource": {
  "resourceType" : "Encounter",
  "language": "ES",
  "status" : "finished",
  "class" : {
    "system" : "http://terminology.hl7.org/CodeSystem/v3-ActCode",
    "code" : "AMB",
    "display" : "ambulatory"
  }
 }
}
 ,
{
"resource": {
  "resourceType" : "Encounter",
  "language": "ES",
  "status" : "finished",
  "class" : {
    "system" : "http://terminology.hl7.org/CodeSystem/v3-ActCode",
    "code" : "AMB",
    "display" : "ambulatory"
  }
  ,
  "period" : {
    "start" : "2014-09-09"
  }
 }
}
 ,
{
"resource": {
  "resourceType" : "Encounter",
  "language": "ES",
  "status" : "finished",
  "class" : {
    "system" : "http://terminology.hl7.org/CodeSystem/v3-ActCode",
    "code" : "AMB",
    "display" : "ambulatory"
  }
 }
}
 ,
{
"resource": {
  "resourceType" : "Encounter",
  "language": "ES",
  "status" : "finished",
  "class" : {
    "system" : "http://terminology.hl7.org/CodeSystem/v3-ActCode",
    "code" : "AMB",
    "display" : "ambulatory"
  }
 }
}
 ,
{
"resource": {
  "resourceType" : "Encounter",
  "language": "ES",
  "status" : "finished",
  "class" : {
    "system" : "http://terminology.hl7.org/CodeSystem/v3-ActCode",
    "code" : "AMB",
    "display" : "ambulatory"
  }
  ,
  "period" : {
    "start" : "2016-03-16"
  }
 }
}
 ,
{
"resource": {
  "resourceType" : "Encounter",
  "language": "ES",
  "status" : "finished",
  "class" : {
    "system" : "http://terminology.hl7.org/CodeSystem/v3-ActCode",
    "code" : "AMB",
    "display" : "ambulatory"
  }
 }
}
 ,
{
"resource": {
  "resourceType" : "Encounter",
  "language": "ES",
  "status" : "finished",
  "class" : {
    "system" : "http://terminology.hl7.org/CodeSystem/v3-ActCode",
    "code" : "AMB",
    "display" : "ambulatory"
  }
 }
}
 ,
{
"resource": {
  "resourceType" : "Encounter",
  "language": "ES",
  "status" : "finished",
  "class" : {
    "system" : "http://terminology.hl7.org/CodeSystem/v3-ActCode",
    "code" : "AMB",
    "display" : "ambulatory"
  }
 }
}
 ,
{
"resource": {
  "resourceType" : "Encounter",
  "language": "ES",
  "status" : "finished",
  "class" : {
    "system" : "http://terminology.hl7.org/CodeSystem/v3-ActCode",
    "code" : "AMB",
    "display" : "ambulatory"
  }
  ,
  "period" : {
    "start" : "2016-12-23"
  }
 }
}
 ,
{
"resource": {
  "resourceType" : "Encounter",
  "language": "ES",
  "status" : "finished",
  "class" : {
    "system" : "http://terminology.hl7.org/CodeSystem/v3-ActCode",
    "code" : "AMB",
    "display" : "ambulatory"
  }
  ,
  "period" : {
    "start" : "2017-11-06"
  }
 }
}
 ,
{
"resource": {
  "resourceType" : "Encounter",
  "language": "ES",
  "status" : "finished",
  "class" : {
    "system" : "http://terminology.hl7.org/CodeSystem/v3-ActCode",
    "code" : "AMB",
    "display" : "ambulatory"
  }
  ,
  "period" : {
    "start" : "2012-09-13"
  }
 }
}
 ,
{
"resource": {
  "resourceType" : "Encounter",
  "language": "ES",
  "status" : "finished",
  "class" : {
    "system" : "http://terminology.hl7.org/CodeSystem/v3-ActCode",
    "code" : "AMB",
    "display" : "ambulatory"
  }
  ,
  "period" : {
    "start" : "2012-10-24"
  }
 }
}
 ,
{
"resource": {
  "resourceType" : "Encounter",
  "language": "ES",
  "status" : "finished",
  "class" : {
    "system" : "http://terminology.hl7.org/CodeSystem/v3-ActCode",
    "code" : "AMB",
    "display" : "ambulatory"
  }
  ,
  "period" : {
    "start" : "2012-10-12"
  }
 }
}
 ,
{
"resource": {
  "resourceType" : "Encounter",
  "language": "ES",
  "status" : "finished",
  "class" : {
    "system" : "http://terminology.hl7.org/CodeSystem/v3-ActCode",
    "code" : "AMB",
    "display" : "ambulatory"
  }
  ,
  "period" : {
    "start" : "2015-02-25"
  }
 }
}
 ,
{
"resource": {
  "resourceType" : "Encounter",
  "language": "ES",
  "status" : "finished",
  "class" : {
    "system" : "http://terminology.hl7.org/CodeSystem/v3-ActCode",
    "code" : "AMB",
    "display" : "ambulatory"
  }
 }
}
 ,
{
"resource": {
  "resourceType" : "Encounter",
  "language": "ES",
  "status" : "finished",
  "class" : {
    "system" : "http://terminology.hl7.org/CodeSystem/v3-ActCode",
    "code" : "AMB",
    "display" : "ambulatory"
  }
 }
}
 ,
{
"resource": {
  "resourceType" : "Encounter",
  "language": "ES",
  "status" : "finished",
  "class" : {
    "system" : "http://terminology.hl7.org/CodeSystem/v3-ActCode",
    "code" : "AMB",
    "display" : "ambulatory"
  }
 }
}
 ,
{
"resource": {
  "resourceType" : "Encounter",
  "language": "ES",
  "status" : "finished",
  "class" : {
    "system" : "http://terminology.hl7.org/CodeSystem/v3-ActCode",
    "code" : "AMB",
    "display" : "ambulatory"
  }
 }
}
 ,
{
"resource": {
  "resourceType" : "Encounter",
  "language": "ES",
  "status" : "finished",
  "class" : {
    "system" : "http://terminology.hl7.org/CodeSystem/v3-ActCode",
    "code" : "AMB",
    "display" : "ambulatory"
  }
 }
}
 ,
{
"resource": {
  "resourceType" : "Encounter",
  "language": "ES",
  "status" : "finished",
  "class" : {
    "system" : "http://terminology.hl7.org/CodeSystem/v3-ActCode",
    "code" : "AMB",
    "display" : "ambulatory"
  }
  ,
  "period" : {
    "start" : "2012-10-17"
  }
 }
}
 ,
{
"resource": {
  "resourceType" : "Encounter",
  "language": "ES",
  "status" : "finished",
  "class" : {
    "system" : "http://terminology.hl7.org/CodeSystem/v3-ActCode",
    "code" : "AMB",
    "display" : "ambulatory"
  }
 }
}
 ,
{
"resource": {
  "resourceType" : "Encounter",
  "language": "ES",
  "status" : "finished",
  "class" : {
    "system" : "http://terminology.hl7.org/CodeSystem/v3-ActCode",
    "code" : "AMB",
    "display" : "ambulatory"
  }
 }
}
 ,
{
"resource": {
  "resourceType" : "Encounter",
  "language": "ES",
  "status" : "finished",
  "class" : {
    "system" : "http://terminology.hl7.org/CodeSystem/v3-ActCode",
    "code" : "AMB",
    "display" : "ambulatory"
  }
 }
}
 ,
{
"resource": {
  "resourceType" : "Encounter",
  "language": "ES",
  "status" : "finished",
  "class" : {
    "system" : "http://terminology.hl7.org/CodeSystem/v3-ActCode",
    "code" : "AMB",
    "display" : "ambulatory"
  }
 }
}
 ,
{
"resource": {
  "resourceType" : "Encounter",
  "language": "ES",
  "status" : "finished",
  "class" : {
    "system" : "http://terminology.hl7.org/CodeSystem/v3-ActCode",
    "code" : "AMB",
    "display" : "ambulatory"
  }
  ,
  "period" : {
    "start" : "2013-07-09"
  }
 }
}
 ,
{
"resource": {
  "resourceType" : "Encounter",
  "language": "ES",
  "status" : "finished",
  "class" : {
    "system" : "http://terminology.hl7.org/CodeSystem/v3-ActCode",
    "code" : "AMB",
    "display" : "ambulatory"
  }
  ,
  "period" : {
    "start" : "2014-05-15"
  }
 }
}
 ,
{
"resource": {
  "resourceType" : "Encounter",
  "language": "ES",
  "status" : "finished",
  "class" : {
    "system" : "http://terminology.hl7.org/CodeSystem/v3-ActCode",
    "code" : "AMB",
    "display" : "ambulatory"
  }
 }
}
 ,
{
"resource": {
  "resourceType" : "Encounter",
  "language": "ES",
  "status" : "finished",
  "class" : {
    "system" : "http://terminology.hl7.org/CodeSystem/v3-ActCode",
    "code" : "AMB",
    "display" : "ambulatory"
  }
 }
}
 ,
{
"resource": {
  "resourceType" : "Encounter",
  "language": "ES",
  "status" : "finished",
  "class" : {
    "system" : "http://terminology.hl7.org/CodeSystem/v3-ActCode",
    "code" : "AMB",
    "display" : "ambulatory"
  }
  ,
  "period" : {
    "start" : "2013-07-16"
  }
 }
}
 ,
{
"resource": {
  "resourceType" : "Encounter",
  "language": "ES",
  "status" : "finished",
  "class" : {
    "system" : "http://terminology.hl7.org/CodeSystem/v3-ActCode",
    "code" : "AMB",
    "display" : "ambulatory"
  }
  ,
  "period" : {
    "start" : "2013-05-23"
  }
 }
}
 ,
{
"resource": {
  "resourceType" : "Encounter",
  "language": "ES",
  "status" : "finished",
  "class" : {
    "system" : "http://terminology.hl7.org/CodeSystem/v3-ActCode",
    "code" : "AMB",
    "display" : "ambulatory"
  }
 }
}
 ,
{
"resource": {
  "resourceType" : "Encounter",
  "language": "ES",
  "status" : "finished",
  "class" : {
    "system" : "http://terminology.hl7.org/CodeSystem/v3-ActCode",
    "code" : "AMB",
    "display" : "ambulatory"
  }
 }
}
 ,
{
"resource": {
  "resourceType" : "Encounter",
  "language": "ES",
  "status" : "finished",
  "class" : {
    "system" : "http://terminology.hl7.org/CodeSystem/v3-ActCode",
    "code" : "AMB",
    "display" : "ambulatory"
  }
  ,
  "period" : {
    "start" : "2015-03-20"
  }
 }
}
 ,
{
"resource": {
  "resourceType" : "Encounter",
  "language": "ES",
  "status" : "finished",
  "class" : {
    "system" : "http://terminology.hl7.org/CodeSystem/v3-ActCode",
    "code" : "AMB",
    "display" : "ambulatory"
  }
 }
}
 ,
{
"resource": {
  "resourceType" : "Encounter",
  "language": "ES",
  "status" : "finished",
  "class" : {
    "system" : "http://terminology.hl7.org/CodeSystem/v3-ActCode",
    "code" : "AMB",
    "display" : "ambulatory"
  }
 }
}
 ,
{
"resource": {
  "resourceType" : "Encounter",
  "language": "ES",
  "status" : "finished",
  "class" : {
    "system" : "http://terminology.hl7.org/CodeSystem/v3-ActCode",
    "code" : "AMB",
    "display" : "ambulatory"
  }
 }
}
 ,
{
"resource": {
  "resourceType" : "Encounter",
  "language": "ES",
  "status" : "finished",
  "class" : {
    "system" : "http://terminology.hl7.org/CodeSystem/v3-ActCode",
    "code" : "AMB",
    "display" : "ambulatory"
  }
  ,
  "period" : {
    "start" : "2014-05-16"
  }
 }
}
 ,
{
"resource": {
  "resourceType" : "Encounter",
  "language": "ES",
  "status" : "finished",
  "class" : {
    "system" : "http://terminology.hl7.org/CodeSystem/v3-ActCode",
    "code" : "AMB",
    "display" : "ambulatory"
  }
 }
}
 ,
{
"resource": {
  "resourceType" : "Encounter",
  "language": "ES",
  "status" : "finished",
  "class" : {
    "system" : "http://terminology.hl7.org/CodeSystem/v3-ActCode",
    "code" : "AMB",
    "display" : "ambulatory"
  }
 }
}
 ,
{
"resource": {
  "resourceType" : "Encounter",
  "language": "ES",
  "status" : "finished",
  "class" : {
    "system" : "http://terminology.hl7.org/CodeSystem/v3-ActCode",
    "code" : "AMB",
    "display" : "ambulatory"
  }
  ,
  "period" : {
    "start" : "2014-01-28"
  }
 }
}
 ,
{
"resource": {
  "resourceType" : "Encounter",
  "language": "ES",
  "status" : "finished",
  "class" : {
    "system" : "http://terminology.hl7.org/CodeSystem/v3-ActCode",
    "code" : "AMB",
    "display" : "ambulatory"
  }
 }
}
 ,
{
"resource": {
  "resourceType" : "Encounter",
  "language": "ES",
  "status" : "finished",
  "class" : {
    "system" : "http://terminology.hl7.org/CodeSystem/v3-ActCode",
    "code" : "AMB",
    "display" : "ambulatory"
  }
 }
}
 ,
{
"resource": {
  "resourceType" : "Encounter",
  "language": "ES",
  "status" : "finished",
  "class" : {
    "system" : "http://terminology.hl7.org/CodeSystem/v3-ActCode",
    "code" : "AMB",
    "display" : "ambulatory"
  }
 }
}
 ,
{
"resource": {
  "resourceType" : "Encounter",
  "language": "ES",
  "status" : "finished",
  "class" : {
    "system" : "http://terminology.hl7.org/CodeSystem/v3-ActCode",
    "code" : "AMB",
    "display" : "ambulatory"
  }
 }
}
 ,
{
"resource": {
  "resourceType" : "Encounter",
  "language": "ES",
  "status" : "finished",
  "class" : {
    "system" : "http://terminology.hl7.org/CodeSystem/v3-ActCode",
    "code" : "AMB",
    "display" : "ambulatory"
  }
  ,
  "period" : {
    "start" : "2017-09-25"
  }
 }
}
 ,
{
"resource": {
  "resourceType" : "Encounter",
  "language": "ES",
  "status" : "finished",
  "class" : {
    "system" : "http://terminology.hl7.org/CodeSystem/v3-ActCode",
    "code" : "AMB",
    "display" : "ambulatory"
  }
  ,
  "period" : {
    "start" : "2016-11-08"
  }
 }
}
 ,
{
"resource": {
  "resourceType" : "Encounter",
  "language": "ES",
  "status" : "finished",
  "class" : {
    "system" : "http://terminology.hl7.org/CodeSystem/v3-ActCode",
    "code" : "AMB",
    "display" : "ambulatory"
  }
 }
}
 ,
{
"resource": {
  "resourceType" : "Encounter",
  "language": "ES",
  "status" : "finished",
  "class" : {
    "system" : "http://terminology.hl7.org/CodeSystem/v3-ActCode",
    "code" : "AMB",
    "display" : "ambulatory"
  }
 }
}
 ,
{
"resource": {
  "resourceType" : "Encounter",
  "language": "ES",
  "status" : "finished",
  "class" : {
    "system" : "http://terminology.hl7.org/CodeSystem/v3-ActCode",
    "code" : "AMB",
    "display" : "ambulatory"
  }
 }
}
 ,
{
"resource": {
  "resourceType" : "Encounter",
  "language": "ES",
  "status" : "finished",
  "class" : {
    "system" : "http://terminology.hl7.org/CodeSystem/v3-ActCode",
    "code" : "AMB",
    "display" : "ambulatory"
  }
 }
}
 ,
{
"resource": {
  "resourceType" : "Encounter",
  "language": "ES",
  "status" : "finished",
  "class" : {
    "system" : "http://terminology.hl7.org/CodeSystem/v3-ActCode",
    "code" : "AMB",
    "display" : "ambulatory"
  }
 }
}
 ,
{
"resource": {
  "resourceType" : "Encounter",
  "language": "ES",
  "status" : "finished",
  "class" : {
    "system" : "http://terminology.hl7.org/CodeSystem/v3-ActCode",
    "code" : "AMB",
    "display" : "ambulatory"
  }
  ,
  "period" : {
    "start" : "2015-05-25"
  }
 }
}
 ,
{
"resource": {
  "resourceType" : "Encounter",
  "language": "ES",
  "status" : "finished",
  "class" : {
    "system" : "http://terminology.hl7.org/CodeSystem/v3-ActCode",
    "code" : "AMB",
    "display" : "ambulatory"
  }
 }
}
 ,
{
"resource": {
  "resourceType" : "Encounter",
  "language": "ES",
  "status" : "finished",
  "class" : {
    "system" : "http://terminology.hl7.org/CodeSystem/v3-ActCode",
    "code" : "AMB",
    "display" : "ambulatory"
  }
  ,
  "period" : {
    "start" : "2017-02-24"
  }
 }
}
 ,
{
"resource": {
  "resourceType" : "Encounter",
  "language": "ES",
  "status" : "finished",
  "class" : {
    "system" : "http://terminology.hl7.org/CodeSystem/v3-ActCode",
    "code" : "AMB",
    "display" : "ambulatory"
  }
  ,
  "period" : {
    "start" : "2016-02-11"
  }
 }
}
 ,
{
"resource": {
  "resourceType" : "Encounter",
  "language": "ES",
  "status" : "finished",
  "class" : {
    "system" : "http://terminology.hl7.org/CodeSystem/v3-ActCode",
    "code" : "AMB",
    "display" : "ambulatory"
  }
 }
}
 ,
{
"resource": {
  "resourceType" : "Encounter",
  "language": "ES",
  "status" : "finished",
  "class" : {
    "system" : "http://terminology.hl7.org/CodeSystem/v3-ActCode",
    "code" : "AMB",
    "display" : "ambulatory"
  }
 }
}
 ,
{
"resource": {
  "resourceType" : "Encounter",
  "language": "ES",
  "status" : "finished",
  "class" : {
    "system" : "http://terminology.hl7.org/CodeSystem/v3-ActCode",
    "code" : "AMB",
    "display" : "ambulatory"
  }
 }
}
 ,
{
"resource": {
  "resourceType" : "Encounter",
  "language": "ES",
  "status" : "finished",
  "class" : {
    "system" : "http://terminology.hl7.org/CodeSystem/v3-ActCode",
    "code" : "AMB",
    "display" : "ambulatory"
  }
  ,
  "period" : {
    "start" : "2014-03-11"
  }
 }
}
 ,
{
"resource": {
  "resourceType" : "Encounter",
  "language": "ES",
  "status" : "finished",
  "class" : {
    "system" : "http://terminology.hl7.org/CodeSystem/v3-ActCode",
    "code" : "AMB",
    "display" : "ambulatory"
  }
 }
}
 ,
{
"resource": {
  "resourceType" : "Encounter",
  "language": "ES",
  "status" : "finished",
  "class" : {
    "system" : "http://terminology.hl7.org/CodeSystem/v3-ActCode",
    "code" : "AMB",
    "display" : "ambulatory"
  }
  ,
  "period" : {
    "start" : "2015-08-17"
  }
 }
}
 ,
{
"resource": {
  "resourceType" : "Encounter",
  "language": "ES",
  "status" : "finished",
  "class" : {
    "system" : "http://terminology.hl7.org/CodeSystem/v3-ActCode",
    "code" : "AMB",
    "display" : "ambulatory"
  }
 }
}
 ,
{
"resource": {
  "resourceType" : "Encounter",
  "language": "ES",
  "status" : "finished",
  "class" : {
    "system" : "http://terminology.hl7.org/CodeSystem/v3-ActCode",
    "code" : "AMB",
    "display" : "ambulatory"
  }
 }
}
 ,
{
"resource": {
  "resourceType" : "Encounter",
  "language": "ES",
  "status" : "finished",
  "class" : {
    "system" : "http://terminology.hl7.org/CodeSystem/v3-ActCode",
    "code" : "AMB",
    "display" : "ambulatory"
  }
  ,
  "period" : {
    "start" : "2015-05-29"
  }
 }
}
 ,
{
"resource": {
  "resourceType" : "Encounter",
  "language": "ES",
  "status" : "finished",
  "class" : {
    "system" : "http://terminology.hl7.org/CodeSystem/v3-ActCode",
    "code" : "AMB",
    "display" : "ambulatory"
  }
 }
}
 ,
{
"resource": {
  "resourceType" : "Encounter",
  "language": "ES",
  "status" : "finished",
  "class" : {
    "system" : "http://terminology.hl7.org/CodeSystem/v3-ActCode",
    "code" : "AMB",
    "display" : "ambulatory"
  }
 }
}
 ,
{
"resource": {
  "resourceType" : "Encounter",
  "language": "ES",
  "status" : "finished",
  "class" : {
    "system" : "http://terminology.hl7.org/CodeSystem/v3-ActCode",
    "code" : "AMB",
    "display" : "ambulatory"
  }
 }
}
 ,
{
"resource": {
  "resourceType" : "Encounter",
  "language": "ES",
  "status" : "finished",
  "class" : {
    "system" : "http://terminology.hl7.org/CodeSystem/v3-ActCode",
    "code" : "AMB",
    "display" : "ambulatory"
  }
 }
}
 ,
{
"resource": {
  "resourceType" : "Encounter",
  "language": "ES",
  "status" : "finished",
  "class" : {
    "system" : "http://terminology.hl7.org/CodeSystem/v3-ActCode",
    "code" : "AMB",
    "display" : "ambulatory"
  }
 }
}
 ,
{
"resource": {
  "resourceType" : "Encounter",
  "language": "ES",
  "status" : "finished",
  "class" : {
    "system" : "http://terminology.hl7.org/CodeSystem/v3-ActCode",
    "code" : "AMB",
    "display" : "ambulatory"
  }
  ,
  "period" : {
    "start" : "2016-06-29"
  }
 }
}
 ,
{
"resource": {
  "resourceType" : "Encounter",
  "language": "ES",
  "status" : "finished",
  "class" : {
    "system" : "http://terminology.hl7.org/CodeSystem/v3-ActCode",
    "code" : "AMB",
    "display" : "ambulatory"
  }
 }
}
 ,
{
"resource": {
  "resourceType" : "Encounter",
  "language": "ES",
  "status" : "finished",
  "class" : {
    "system" : "http://terminology.hl7.org/CodeSystem/v3-ActCode",
    "code" : "AMB",
    "display" : "ambulatory"
  }
  ,
  "period" : {
    "start" : "2014-06-09"
  }
 }
}
 ,
{
"resource": {
  "resourceType" : "Encounter",
  "language": "ES",
  "status" : "finished",
  "class" : {
    "system" : "http://terminology.hl7.org/CodeSystem/v3-ActCode",
    "code" : "AMB",
    "display" : "ambulatory"
  }
 }
}
 ,
{
"resource": {
  "resourceType" : "Encounter",
  "language": "ES",
  "status" : "finished",
  "class" : {
    "system" : "http://terminology.hl7.org/CodeSystem/v3-ActCode",
    "code" : "AMB",
    "display" : "ambulatory"
  }
 }
}
 ,
{
"resource": {
  "resourceType" : "Encounter",
  "language": "ES",
  "status" : "finished",
  "class" : {
    "system" : "http://terminology.hl7.org/CodeSystem/v3-ActCode",
    "code" : "AMB",
    "display" : "ambulatory"
  }
 }
}
 ,
{
"resource": {
  "resourceType" : "Encounter",
  "language": "ES",
  "status" : "finished",
  "class" : {
    "system" : "http://terminology.hl7.org/CodeSystem/v3-ActCode",
    "code" : "AMB",
    "display" : "ambulatory"
  }
  ,
  "period" : {
    "start" : "2014-02-17"
  }
 }
}
 ,
{
"resource": {
  "resourceType" : "Encounter",
  "language": "ES",
  "status" : "finished",
  "class" : {
    "system" : "http://terminology.hl7.org/CodeSystem/v3-ActCode",
    "code" : "AMB",
    "display" : "ambulatory"
  }
 }
}
 ,
{
"resource": {
  "resourceType" : "Encounter",
  "language": "ES",
  "status" : "finished",
  "class" : {
    "system" : "http://terminology.hl7.org/CodeSystem/v3-ActCode",
    "code" : "AMB",
    "display" : "ambulatory"
  }
  ,
  "period" : {
    "start" : "2014-12-12"
  }
 }
}
 ,
{
"resource": {
  "resourceType" : "Encounter",
  "language": "ES",
  "status" : "finished",
  "class" : {
    "system" : "http://terminology.hl7.org/CodeSystem/v3-ActCode",
    "code" : "AMB",
    "display" : "ambulatory"
  }
 }
}
 ,
{
"resource": {
  "resourceType" : "Encounter",
  "language": "ES",
  "status" : "finished",
  "class" : {
    "system" : "http://terminology.hl7.org/CodeSystem/v3-ActCode",
    "code" : "AMB",
    "display" : "ambulatory"
  }
 }
}
 ,
{
"resource": {
  "resourceType" : "Encounter",
  "language": "ES",
  "status" : "finished",
  "class" : {
    "system" : "http://terminology.hl7.org/CodeSystem/v3-ActCode",
    "code" : "AMB",
    "display" : "ambulatory"
  }
 }
}
 ,
{
"resource": {
  "resourceType" : "Encounter",
  "language": "ES",
  "status" : "finished",
  "class" : {
    "system" : "http://terminology.hl7.org/CodeSystem/v3-ActCode",
    "code" : "AMB",
    "display" : "ambulatory"
  }
 }
}
 ,
{
"resource": {
  "resourceType" : "Encounter",
  "language": "ES",
  "status" : "finished",
  "class" : {
    "system" : "http://terminology.hl7.org/CodeSystem/v3-ActCode",
    "code" : "AMB",
    "display" : "ambulatory"
  }
  ,
  "period" : {
    "start" : "2016-03-21"
  }
 }
}
 ,
{
"resource": {
  "resourceType" : "Encounter",
  "language": "ES",
  "status" : "finished",
  "class" : {
    "system" : "http://terminology.hl7.org/CodeSystem/v3-ActCode",
    "code" : "AMB",
    "display" : "ambulatory"
  }
  ,
  "period" : {
    "start" : "2017-10-03"
  }
 }
}
 ,
{
"resource": {
  "resourceType" : "Encounter",
  "language": "ES",
  "status" : "finished",
  "class" : {
    "system" : "http://terminology.hl7.org/CodeSystem/v3-ActCode",
    "code" : "AMB",
    "display" : "ambulatory"
  }
 }
}
 ,
{
"resource": {
  "resourceType" : "Encounter",
  "language": "ES",
  "status" : "finished",
  "class" : {
    "system" : "http://terminology.hl7.org/CodeSystem/v3-ActCode",
    "code" : "AMB",
    "display" : "ambulatory"
  }
 }
}
 ,
{
"resource": {
  "resourceType" : "Encounter",
  "language": "ES",
  "status" : "finished",
  "class" : {
    "system" : "http://terminology.hl7.org/CodeSystem/v3-ActCode",
    "code" : "AMB",
    "display" : "ambulatory"
  }
  ,
  "period" : {
    "start" : "2013-07-04"
  }
 }
}
 ,
{
"resource": {
  "resourceType" : "Encounter",
  "language": "ES",
  "status" : "finished",
  "class" : {
    "system" : "http://terminology.hl7.org/CodeSystem/v3-ActCode",
    "code" : "AMB",
    "display" : "ambulatory"
  }
 }
}
 ,
{
"resource": {
  "resourceType" : "Encounter",
  "language": "ES",
  "status" : "finished",
  "class" : {
    "system" : "http://terminology.hl7.org/CodeSystem/v3-ActCode",
    "code" : "AMB",
    "display" : "ambulatory"
  }
  ,
  "period" : {
    "start" : "2014-12-23"
  }
 }
}
 ,
{
"resource": {
  "resourceType" : "Encounter",
  "language": "ES",
  "status" : "finished",
  "class" : {
    "system" : "http://terminology.hl7.org/CodeSystem/v3-ActCode",
    "code" : "AMB",
    "display" : "ambulatory"
  }
 }
}
 ,
{
"resource": {
  "resourceType" : "Encounter",
  "language": "ES",
  "status" : "finished",
  "class" : {
    "system" : "http://terminology.hl7.org/CodeSystem/v3-ActCode",
    "code" : "AMB",
    "display" : "ambulatory"
  }
  ,
  "period" : {
    "start" : "2013-10-04"
  }
 }
}
 ,
{
"resource": {
  "resourceType" : "Encounter",
  "language": "ES",
  "status" : "finished",
  "class" : {
    "system" : "http://terminology.hl7.org/CodeSystem/v3-ActCode",
    "code" : "AMB",
    "display" : "ambulatory"
  }
 }
}
 ,
{
"resource": {
  "resourceType" : "Encounter",
  "language": "ES",
  "status" : "finished",
  "class" : {
    "system" : "http://terminology.hl7.org/CodeSystem/v3-ActCode",
    "code" : "AMB",
    "display" : "ambulatory"
  }
 }
}
 ,
{
"resource": {
  "resourceType" : "Encounter",
  "language": "ES",
  "status" : "finished",
  "class" : {
    "system" : "http://terminology.hl7.org/CodeSystem/v3-ActCode",
    "code" : "AMB",
    "display" : "ambulatory"
  }
 }
}
 ,
{
"resource": {
  "resourceType" : "Encounter",
  "language": "ES",
  "status" : "finished",
  "class" : {
    "system" : "http://terminology.hl7.org/CodeSystem/v3-ActCode",
    "code" : "AMB",
    "display" : "ambulatory"
  }
 }
}
 ,
{
"resource": {
  "resourceType" : "Encounter",
  "language": "ES",
  "status" : "finished",
  "class" : {
    "system" : "http://terminology.hl7.org/CodeSystem/v3-ActCode",
    "code" : "AMB",
    "display" : "ambulatory"
  }
  ,
  "period" : {
    "start" : "2015-12-22"
  }
 }
}
 ,
{
"resource": {
  "resourceType" : "Encounter",
  "language": "ES",
  "status" : "finished",
  "class" : {
    "system" : "http://terminology.hl7.org/CodeSystem/v3-ActCode",
    "code" : "AMB",
    "display" : "ambulatory"
  }
 }
}
 ,
{
"resource": {
  "resourceType" : "Encounter",
  "language": "ES",
  "status" : "finished",
  "class" : {
    "system" : "http://terminology.hl7.org/CodeSystem/v3-ActCode",
    "code" : "AMB",
    "display" : "ambulatory"
  }
 }
}
 ,
{
"resource": {
  "resourceType" : "Encounter",
  "language": "ES",
  "status" : "finished",
  "class" : {
    "system" : "http://terminology.hl7.org/CodeSystem/v3-ActCode",
    "code" : "AMB",
    "display" : "ambulatory"
  }
  ,
  "period" : {
    "start" : "2017-12-11"
  }
 }
}
 ,
{
"resource": {
  "resourceType" : "Encounter",
  "language": "ES",
  "status" : "finished",
  "class" : {
    "system" : "http://terminology.hl7.org/CodeSystem/v3-ActCode",
    "code" : "AMB",
    "display" : "ambulatory"
  }
 }
}
 ,
{
"resource": {
  "resourceType" : "Encounter",
  "language": "ES",
  "status" : "finished",
  "class" : {
    "system" : "http://terminology.hl7.org/CodeSystem/v3-ActCode",
    "code" : "AMB",
    "display" : "ambulatory"
  }
  ,
  "period" : {
    "start" : "2017-10-13"
  }
 }
}
 ,
{
"resource": {
  "resourceType" : "Encounter",
  "language": "ES",
  "status" : "finished",
  "class" : {
    "system" : "http://terminology.hl7.org/CodeSystem/v3-ActCode",
    "code" : "AMB",
    "display" : "ambulatory"
  }
  ,
  "period" : {
    "start" : "2017-05-30"
  }
 }
}
 ,
{
"resource": {
  "resourceType" : "Encounter",
  "language": "ES",
  "status" : "finished",
  "class" : {
    "system" : "http://terminology.hl7.org/CodeSystem/v3-ActCode",
    "code" : "AMB",
    "display" : "ambulatory"
  }
  ,
  "period" : {
    "start" : "2014-04-07"
  }
 }
}
 ,
{
"resource": {
  "resourceType" : "Encounter",
  "language": "ES",
  "status" : "finished",
  "class" : {
    "system" : "http://terminology.hl7.org/CodeSystem/v3-ActCode",
    "code" : "AMB",
    "display" : "ambulatory"
  }
  ,
  "period" : {
    "start" : "2013-09-10"
  }
 }
}
 ,
{
"resource": {
  "resourceType" : "Encounter",
  "language": "ES",
  "status" : "finished",
  "class" : {
    "system" : "http://terminology.hl7.org/CodeSystem/v3-ActCode",
    "code" : "AMB",
    "display" : "ambulatory"
  }
 }
}
 ,
{
"resource": {
  "resourceType" : "Encounter",
  "language": "ES",
  "status" : "finished",
  "class" : {
    "system" : "http://terminology.hl7.org/CodeSystem/v3-ActCode",
    "code" : "AMB",
    "display" : "ambulatory"
  }
  ,
  "period" : {
    "start" : "2015-07-30"
  }
 }
}
 ,
{
"resource": {
  "resourceType" : "Encounter",
  "language": "ES",
  "status" : "finished",
  "class" : {
    "system" : "http://terminology.hl7.org/CodeSystem/v3-ActCode",
    "code" : "AMB",
    "display" : "ambulatory"
  }
 }
}
 ,
{
"resource": {
  "resourceType" : "Encounter",
  "language": "ES",
  "status" : "finished",
  "class" : {
    "system" : "http://terminology.hl7.org/CodeSystem/v3-ActCode",
    "code" : "AMB",
    "display" : "ambulatory"
  }
  ,
  "period" : {
    "start" : "2015-09-18"
  }
 }
}
 ,
{
"resource": {
  "resourceType" : "Encounter",
  "language": "ES",
  "status" : "finished",
  "class" : {
    "system" : "http://terminology.hl7.org/CodeSystem/v3-ActCode",
    "code" : "AMB",
    "display" : "ambulatory"
  }
 }
}
 ,
{
"resource": {
  "resourceType" : "Encounter",
  "language": "ES",
  "status" : "finished",
  "class" : {
    "system" : "http://terminology.hl7.org/CodeSystem/v3-ActCode",
    "code" : "AMB",
    "display" : "ambulatory"
  }
 }
}
 ,
{
"resource": {
  "resourceType" : "Encounter",
  "language": "ES",
  "status" : "finished",
  "class" : {
    "system" : "http://terminology.hl7.org/CodeSystem/v3-ActCode",
    "code" : "AMB",
    "display" : "ambulatory"
  }
 }
}
 ,
{
"resource": {
  "resourceType" : "Encounter",
  "language": "ES",
  "status" : "finished",
  "class" : {
    "system" : "http://terminology.hl7.org/CodeSystem/v3-ActCode",
    "code" : "AMB",
    "display" : "ambulatory"
  }
  ,
  "period" : {
    "start" : "2016-02-16"
  }
 }
}
 ,
{
"resource": {
  "resourceType" : "Encounter",
  "language": "ES",
  "status" : "finished",
  "class" : {
    "system" : "http://terminology.hl7.org/CodeSystem/v3-ActCode",
    "code" : "AMB",
    "display" : "ambulatory"
  }
 }
}
 ,
{
"resource": {
  "resourceType" : "Encounter",
  "language": "ES",
  "status" : "finished",
  "class" : {
    "system" : "http://terminology.hl7.org/CodeSystem/v3-ActCode",
    "code" : "AMB",
    "display" : "ambulatory"
  }
 }
}
 ,
{
"resource": {
  "resourceType" : "Encounter",
  "language": "ES",
  "status" : "finished",
  "class" : {
    "system" : "http://terminology.hl7.org/CodeSystem/v3-ActCode",
    "code" : "AMB",
    "display" : "ambulatory"
  }
  ,
  "period" : {
    "start" : "2017-04-12"
  }
 }
}
 ,
{
"resource": {
  "resourceType" : "Encounter",
  "language": "ES",
  "status" : "finished",
  "class" : {
    "system" : "http://terminology.hl7.org/CodeSystem/v3-ActCode",
    "code" : "AMB",
    "display" : "ambulatory"
  }
 }
}
 ,
{
"resource": {
  "resourceType" : "Encounter",
  "language": "ES",
  "status" : "finished",
  "class" : {
    "system" : "http://terminology.hl7.org/CodeSystem/v3-ActCode",
    "code" : "AMB",
    "display" : "ambulatory"
  }
 }
}
 ,
{
"resource": {
  "resourceType" : "Encounter",
  "language": "ES",
  "status" : "finished",
  "class" : {
    "system" : "http://terminology.hl7.org/CodeSystem/v3-ActCode",
    "code" : "AMB",
    "display" : "ambulatory"
  }
 }
}
 ,
{
"resource": {
  "resourceType" : "Encounter",
  "language": "ES",
  "status" : "finished",
  "class" : {
    "system" : "http://terminology.hl7.org/CodeSystem/v3-ActCode",
    "code" : "AMB",
    "display" : "ambulatory"
  }
  ,
  "period" : {
    "start" : "2016-11-04"
  }
 }
}
 ,
{
"resource": {
  "resourceType" : "Encounter",
  "language": "ES",
  "status" : "finished",
  "class" : {
    "system" : "http://terminology.hl7.org/CodeSystem/v3-ActCode",
    "code" : "AMB",
    "display" : "ambulatory"
  }
  ,
  "period" : {
    "start" : "2014-06-17"
  }
 }
}
 ,
{
"resource": {
  "resourceType" : "Encounter",
  "language": "ES",
  "status" : "finished",
  "class" : {
    "system" : "http://terminology.hl7.org/CodeSystem/v3-ActCode",
    "code" : "AMB",
    "display" : "ambulatory"
  }
  ,
  "period" : {
    "start" : "2014-10-24"
  }
 }
}
 ,
{
"resource": {
  "resourceType" : "Encounter",
  "language": "ES",
  "status" : "finished",
  "class" : {
    "system" : "http://terminology.hl7.org/CodeSystem/v3-ActCode",
    "code" : "AMB",
    "display" : "ambulatory"
  }
 }
}
 ,
{
"resource": {
  "resourceType" : "Encounter",
  "language": "ES",
  "status" : "finished",
  "class" : {
    "system" : "http://terminology.hl7.org/CodeSystem/v3-ActCode",
    "code" : "AMB",
    "display" : "ambulatory"
  }
 }
}
 ,
{
"resource": {
  "resourceType" : "Encounter",
  "language": "ES",
  "status" : "finished",
  "class" : {
    "system" : "http://terminology.hl7.org/CodeSystem/v3-ActCode",
    "code" : "AMB",
    "display" : "ambulatory"
  }
 }
}
 ,
{
"resource": {
  "resourceType" : "Encounter",
  "language": "ES",
  "status" : "finished",
  "class" : {
    "system" : "http://terminology.hl7.org/CodeSystem/v3-ActCode",
    "code" : "AMB",
    "display" : "ambulatory"
  }
  ,
  "period" : {
    "start" : "2016-02-02"
  }
 }
}
 ,
{
"resource": {
  "resourceType" : "Encounter",
  "language": "ES",
  "status" : "finished",
  "class" : {
    "system" : "http://terminology.hl7.org/CodeSystem/v3-ActCode",
    "code" : "AMB",
    "display" : "ambulatory"
  }
 }
}
 ,
{
"resource": {
  "resourceType" : "Encounter",
  "language": "ES",
  "status" : "finished",
  "class" : {
    "system" : "http://terminology.hl7.org/CodeSystem/v3-ActCode",
    "code" : "AMB",
    "display" : "ambulatory"
  }
 }
}
 ,
{
"resource": {
  "resourceType" : "Encounter",
  "language": "ES",
  "status" : "finished",
  "class" : {
    "system" : "http://terminology.hl7.org/CodeSystem/v3-ActCode",
    "code" : "AMB",
    "display" : "ambulatory"
  }
 }
}
 ,
{
"resource": {
  "resourceType" : "Encounter",
  "language": "ES",
  "status" : "finished",
  "class" : {
    "system" : "http://terminology.hl7.org/CodeSystem/v3-ActCode",
    "code" : "AMB",
    "display" : "ambulatory"
  }
 }
}
 ,
{
"resource": {
  "resourceType" : "Encounter",
  "language": "ES",
  "status" : "finished",
  "class" : {
    "system" : "http://terminology.hl7.org/CodeSystem/v3-ActCode",
    "code" : "AMB",
    "display" : "ambulatory"
  }
 }
}
 ,
{
"resource": {
  "resourceType" : "Encounter",
  "language": "ES",
  "status" : "finished",
  "class" : {
    "system" : "http://terminology.hl7.org/CodeSystem/v3-ActCode",
    "code" : "AMB",
    "display" : "ambulatory"
  }
 }
}
 ,
{
"resource": {
  "resourceType" : "Encounter",
  "language": "ES",
  "status" : "finished",
  "class" : {
    "system" : "http://terminology.hl7.org/CodeSystem/v3-ActCode",
    "code" : "AMB",
    "display" : "ambulatory"
  }
 }
}
 ,
{
"resource": {
  "resourceType" : "Encounter",
  "language": "ES",
  "status" : "finished",
  "class" : {
    "system" : "http://terminology.hl7.org/CodeSystem/v3-ActCode",
    "code" : "AMB",
    "display" : "ambulatory"
  }
  ,
  "period" : {
    "start" : "2016-09-20"
  }
 }
}
 ,
{
"resource": {
  "resourceType" : "Encounter",
  "language": "ES",
  "status" : "finished",
  "class" : {
    "system" : "http://terminology.hl7.org/CodeSystem/v3-ActCode",
    "code" : "AMB",
    "display" : "ambulatory"
  }
 }
}
 ,
{
"resource": {
  "resourceType" : "Encounter",
  "language": "ES",
  "status" : "finished",
  "class" : {
    "system" : "http://terminology.hl7.org/CodeSystem/v3-ActCode",
    "code" : "AMB",
    "display" : "ambulatory"
  }
 }
}
 ,
{
"resource": {
  "resourceType" : "Encounter",
  "language": "ES",
  "status" : "finished",
  "class" : {
    "system" : "http://terminology.hl7.org/CodeSystem/v3-ActCode",
    "code" : "AMB",
    "display" : "ambulatory"
  }
 }
}
 ,
{
"resource": {
  "resourceType" : "Encounter",
  "language": "ES",
  "status" : "finished",
  "class" : {
    "system" : "http://terminology.hl7.org/CodeSystem/v3-ActCode",
    "code" : "AMB",
    "display" : "ambulatory"
  }
  ,
  "period" : {
    "start" : "2017-10-25"
  }
 }
}
 ,
{
"resource": {
  "resourceType" : "Encounter",
  "language": "ES",
  "status" : "finished",
  "class" : {
    "system" : "http://terminology.hl7.org/CodeSystem/v3-ActCode",
    "code" : "AMB",
    "display" : "ambulatory"
  }
  ,
  "period" : {
    "start" : "2014-09-24"
  }
 }
}
 ,
{
"resource": {
  "resourceType" : "Encounter",
  "language": "ES",
  "status" : "finished",
  "class" : {
    "system" : "http://terminology.hl7.org/CodeSystem/v3-ActCode",
    "code" : "AMB",
    "display" : "ambulatory"
  }
 }
}
 ,
{
"resource": {
  "resourceType" : "Encounter",
  "language": "ES",
  "status" : "finished",
  "class" : {
    "system" : "http://terminology.hl7.org/CodeSystem/v3-ActCode",
    "code" : "AMB",
    "display" : "ambulatory"
  }
  ,
  "period" : {
    "start" : "2015-12-24"
  }
 }
}
 ,
{
"resource": {
  "resourceType" : "Encounter",
  "language": "ES",
  "status" : "finished",
  "class" : {
    "system" : "http://terminology.hl7.org/CodeSystem/v3-ActCode",
    "code" : "AMB",
    "display" : "ambulatory"
  }
  ,
  "period" : {
    "start" : "2016-10-26"
  }
 }
}
 ,
{
"resource": {
  "resourceType" : "Encounter",
  "language": "ES",
  "status" : "finished",
  "class" : {
    "system" : "http://terminology.hl7.org/CodeSystem/v3-ActCode",
    "code" : "AMB",
    "display" : "ambulatory"
  }
 }
}
 ,
{
"resource": {
  "resourceType" : "Encounter",
  "language": "ES",
  "status" : "finished",
  "class" : {
    "system" : "http://terminology.hl7.org/CodeSystem/v3-ActCode",
    "code" : "AMB",
    "display" : "ambulatory"
  }
  ,
  "period" : {
    "start" : "2013-05-23"
  }
 }
}
 ,
{
"resource": {
  "resourceType" : "Encounter",
  "language": "ES",
  "status" : "finished",
  "class" : {
    "system" : "http://terminology.hl7.org/CodeSystem/v3-ActCode",
    "code" : "AMB",
    "display" : "ambulatory"
  }
  ,
  "period" : {
    "start" : "2016-08-01"
  }
 }
}
 ,
{
"resource": {
  "resourceType" : "Encounter",
  "language": "ES",
  "status" : "finished",
  "class" : {
    "system" : "http://terminology.hl7.org/CodeSystem/v3-ActCode",
    "code" : "AMB",
    "display" : "ambulatory"
  }
 }
}
 ,
{
"resource": {
  "resourceType" : "Encounter",
  "language": "ES",
  "status" : "finished",
  "class" : {
    "system" : "http://terminology.hl7.org/CodeSystem/v3-ActCode",
    "code" : "AMB",
    "display" : "ambulatory"
  }
  ,
  "period" : {
    "start" : "2015-12-08"
  }
 }
}
 ,
{
"resource": {
  "resourceType" : "Encounter",
  "language": "ES",
  "status" : "finished",
  "class" : {
    "system" : "http://terminology.hl7.org/CodeSystem/v3-ActCode",
    "code" : "AMB",
    "display" : "ambulatory"
  }
  ,
  "period" : {
    "start" : "2013-04-24"
  }
 }
}
 ,
{
"resource": {
  "resourceType" : "Encounter",
  "language": "ES",
  "status" : "finished",
  "class" : {
    "system" : "http://terminology.hl7.org/CodeSystem/v3-ActCode",
    "code" : "AMB",
    "display" : "ambulatory"
  }
 }
}
 ,
{
"resource": {
  "resourceType" : "Encounter",
  "language": "ES",
  "status" : "finished",
  "class" : {
    "system" : "http://terminology.hl7.org/CodeSystem/v3-ActCode",
    "code" : "AMB",
    "display" : "ambulatory"
  }
 }
}
 ,
{
"resource": {
  "resourceType" : "Encounter",
  "language": "ES",
  "status" : "finished",
  "class" : {
    "system" : "http://terminology.hl7.org/CodeSystem/v3-ActCode",
    "code" : "AMB",
    "display" : "ambulatory"
  }
 }
}
 ,
{
"resource": {
  "resourceType" : "Encounter",
  "language": "ES",
  "status" : "finished",
  "class" : {
    "system" : "http://terminology.hl7.org/CodeSystem/v3-ActCode",
    "code" : "AMB",
    "display" : "ambulatory"
  }
  ,
  "period" : {
    "start" : "2014-12-31"
  }
 }
}
 ,
{
"resource": {
  "resourceType" : "Encounter",
  "language": "ES",
  "status" : "finished",
  "class" : {
    "system" : "http://terminology.hl7.org/CodeSystem/v3-ActCode",
    "code" : "AMB",
    "display" : "ambulatory"
  }
 }
}
 ,
{
"resource": {
  "resourceType" : "Encounter",
  "language": "ES",
  "status" : "finished",
  "class" : {
    "system" : "http://terminology.hl7.org/CodeSystem/v3-ActCode",
    "code" : "AMB",
    "display" : "ambulatory"
  }
  ,
  "period" : {
    "start" : "2014-03-06"
  }
 }
}
 ,
{
"resource": {
  "resourceType" : "Encounter",
  "language": "ES",
  "status" : "finished",
  "class" : {
    "system" : "http://terminology.hl7.org/CodeSystem/v3-ActCode",
    "code" : "AMB",
    "display" : "ambulatory"
  }
 }
}
 ,
{
"resource": {
  "resourceType" : "Encounter",
  "language": "ES",
  "status" : "finished",
  "class" : {
    "system" : "http://terminology.hl7.org/CodeSystem/v3-ActCode",
    "code" : "AMB",
    "display" : "ambulatory"
  }
 }
}
 ,
{
"resource": {
  "resourceType" : "Encounter",
  "language": "ES",
  "status" : "finished",
  "class" : {
    "system" : "http://terminology.hl7.org/CodeSystem/v3-ActCode",
    "code" : "AMB",
    "display" : "ambulatory"
  }
 }
}
 ,
{
"resource": {
  "resourceType" : "Encounter",
  "language": "ES",
  "status" : "finished",
  "class" : {
    "system" : "http://terminology.hl7.org/CodeSystem/v3-ActCode",
    "code" : "AMB",
    "display" : "ambulatory"
  }
 }
}
 ,
{
"resource": {
  "resourceType" : "Encounter",
  "language": "ES",
  "status" : "finished",
  "class" : {
    "system" : "http://terminology.hl7.org/CodeSystem/v3-ActCode",
    "code" : "AMB",
    "display" : "ambulatory"
  }
  ,
  "period" : {
    "start" : "2014-05-19"
  }
 }
}
 ,
{
"resource": {
  "resourceType" : "Encounter",
  "language": "ES",
  "status" : "finished",
  "class" : {
    "system" : "http://terminology.hl7.org/CodeSystem/v3-ActCode",
    "code" : "AMB",
    "display" : "ambulatory"
  }
 }
}
 ,
{
"resource": {
  "resourceType" : "Encounter",
  "language": "ES",
  "status" : "finished",
  "class" : {
    "system" : "http://terminology.hl7.org/CodeSystem/v3-ActCode",
    "code" : "AMB",
    "display" : "ambulatory"
  }
 }
}
 ,
{
"resource": {
  "resourceType" : "Encounter",
  "language": "ES",
  "status" : "finished",
  "class" : {
    "system" : "http://terminology.hl7.org/CodeSystem/v3-ActCode",
    "code" : "AMB",
    "display" : "ambulatory"
  }
 }
}
 ,
{
"resource": {
  "resourceType" : "Encounter",
  "language": "ES",
  "status" : "finished",
  "class" : {
    "system" : "http://terminology.hl7.org/CodeSystem/v3-ActCode",
    "code" : "AMB",
    "display" : "ambulatory"
  }
  ,
  "period" : {
    "start" : "2015-03-05"
  }
 }
}
 ,
{
"resource": {
  "resourceType" : "Encounter",
  "language": "ES",
  "status" : "finished",
  "class" : {
    "system" : "http://terminology.hl7.org/CodeSystem/v3-ActCode",
    "code" : "AMB",
    "display" : "ambulatory"
  }
  ,
  "period" : {
    "start" : "2015-06-17"
  }
 }
}
 ,
{
"resource": {
  "resourceType" : "Encounter",
  "language": "ES",
  "status" : "finished",
  "class" : {
    "system" : "http://terminology.hl7.org/CodeSystem/v3-ActCode",
    "code" : "AMB",
    "display" : "ambulatory"
  }
 }
}
 ,
{
"resource": {
  "resourceType" : "Encounter",
  "language": "ES",
  "status" : "finished",
  "class" : {
    "system" : "http://terminology.hl7.org/CodeSystem/v3-ActCode",
    "code" : "AMB",
    "display" : "ambulatory"
  }
  ,
  "period" : {
    "start" : "2014-05-07"
  }
 }
}
 ,
{
"resource": {
  "resourceType" : "Encounter",
  "language": "ES",
  "status" : "finished",
  "class" : {
    "system" : "http://terminology.hl7.org/CodeSystem/v3-ActCode",
    "code" : "AMB",
    "display" : "ambulatory"
  }
  ,
  "period" : {
    "start" : "2014-10-23"
  }
 }
}
 ,
{
"resource": {
  "resourceType" : "Encounter",
  "language": "ES",
  "status" : "finished",
  "class" : {
    "system" : "http://terminology.hl7.org/CodeSystem/v3-ActCode",
    "code" : "AMB",
    "display" : "ambulatory"
  }
 }
}
 ,
{
"resource": {
  "resourceType" : "Encounter",
  "language": "ES",
  "status" : "finished",
  "class" : {
    "system" : "http://terminology.hl7.org/CodeSystem/v3-ActCode",
    "code" : "AMB",
    "display" : "ambulatory"
  }
 }
}
 ,
{
"resource": {
  "resourceType" : "Encounter",
  "language": "ES",
  "status" : "finished",
  "class" : {
    "system" : "http://terminology.hl7.org/CodeSystem/v3-ActCode",
    "code" : "AMB",
    "display" : "ambulatory"
  }
 }
}
 ,
{
"resource": {
  "resourceType" : "Encounter",
  "language": "ES",
  "status" : "finished",
  "class" : {
    "system" : "http://terminology.hl7.org/CodeSystem/v3-ActCode",
    "code" : "AMB",
    "display" : "ambulatory"
  }
  ,
  "period" : {
    "start" : "2016-07-25"
  }
 }
}
 ,
{
"resource": {
  "resourceType" : "Encounter",
  "language": "ES",
  "status" : "finished",
  "class" : {
    "system" : "http://terminology.hl7.org/CodeSystem/v3-ActCode",
    "code" : "AMB",
    "display" : "ambulatory"
  }
 }
}
 ,
{
"resource": {
  "resourceType" : "Encounter",
  "language": "ES",
  "status" : "finished",
  "class" : {
    "system" : "http://terminology.hl7.org/CodeSystem/v3-ActCode",
    "code" : "AMB",
    "display" : "ambulatory"
  }
 }
}
 ,
{
"resource": {
  "resourceType" : "Encounter",
  "language": "ES",
  "status" : "finished",
  "class" : {
    "system" : "http://terminology.hl7.org/CodeSystem/v3-ActCode",
    "code" : "AMB",
    "display" : "ambulatory"
  }
  ,
  "period" : {
    "start" : "2013-08-13"
  }
 }
}
 ,
{
"resource": {
  "resourceType" : "Encounter",
  "language": "ES",
  "status" : "finished",
  "class" : {
    "system" : "http://terminology.hl7.org/CodeSystem/v3-ActCode",
    "code" : "AMB",
    "display" : "ambulatory"
  }
 }
}
 ,
{
"resource": {
  "resourceType" : "Encounter",
  "language": "ES",
  "status" : "finished",
  "class" : {
    "system" : "http://terminology.hl7.org/CodeSystem/v3-ActCode",
    "code" : "AMB",
    "display" : "ambulatory"
  }
  ,
  "period" : {
    "start" : "2014-11-13"
  }
 }
}
 ,
{
"resource": {
  "resourceType" : "Encounter",
  "language": "ES",
  "status" : "finished",
  "class" : {
    "system" : "http://terminology.hl7.org/CodeSystem/v3-ActCode",
    "code" : "AMB",
    "display" : "ambulatory"
  }
 }
}
]